{
  "brand": {
    "name": "mflisikowski.dev"
  },
  "navigation": [
    {
      "name": "Home",
      "url": "/",
      "subitems": false,
      "items": []
    },
    {
      "name": "Work",
      "url": "/work",
      "subitems": false,
      "items": []
    },
    {
      "name": "Lab",
      "url": "/lab",
      "subitems": false,
      "items": []
    },
    {
      "name": "Estimate",
      "url": "/estimate",
      "subitems": false,
      "items": []
    },
    {
      "name": "Hireme",
      "url": "/hireme",
      "subitems": false,
      "items": []
    },
    {
      "name": "Contact",
      "url": "/contact",
      "subitems": false,
      "items": []
    }
  ]
}
